/Users/kuldeep/Documents/palup-repo/Web-API/src/main/java/com/palup/crud/InterestUtilities.java
/Users/kuldeep/Documents/palup-repo/Web-API/src/main/java/com/palup/crud/UserCRUD.java
/Users/kuldeep/Documents/palup-repo/Web-API/src/main/java/com/palup/crud/LabelCRUD.java
/Users/kuldeep/Documents/palup-repo/Web-API/src/main/java/com/palup/crud/EventCRUD.java
